[gd_scene load_steps=8 format=2]

[ext_resource path="res://assets/Dungeon/Props/Chest/chest_empty_open_anim_f0.png" type="Texture" id=1]
[ext_resource path="res://scenes/props/reward/Reward.gd" type="Script" id=2]
[ext_resource path="res://assets/Dungeon/Props/Chest/chest_full_open_anim_f0.png" type="Texture" id=3]
[ext_resource path="res://assets/Dungeon/Props/Chest/chest_full_open_anim_f2.png" type="Texture" id=4]
[ext_resource path="res://assets/Dungeon/Props/Chest/chest_full_open_anim_f1.png" type="Texture" id=5]

[sub_resource type="RectangleShape2D" id=1]
extents = Vector2( 8.0941, 5.52291 )

[sub_resource type="SpriteFrames" id=2]
animations = [ {
"frames": [ ExtResource( 1 ) ],
"loop": false,
"name": "default",
"speed": 1.0
}, {
"frames": [ ExtResource( 3 ), ExtResource( 5 ), ExtResource( 4 ) ],
"loop": false,
"name": "opening",
"speed": 5.0
} ]

[node name="Reward" type="StaticBody2D"]
script = ExtResource( 2 )

[node name="CollisionShape2D" type="CollisionShape2D" parent="."]
position = Vector2( 0, 0.419974 )
shape = SubResource( 1 )

[node name="AnimatedSprite" type="AnimatedSprite" parent="."]
frames = SubResource( 2 )
playing = true
